WORKER 1 tcp://localhost:20001/PM tcp://localhost:30001/W
WORKER 2 tcp://localhost:20002/PM tcp://localhost:30002/W tcp://localhost:30001/W
WORKER 3 tcp://localhost:20002/PM tcp://localhost:30003/W tcp://localhost:30002/W
WORKER 4 tcp://localhost:20002/PM tcp://localhost:30004/W tcp://localhost:30002/W
WORKER 5 tcp://localhost:20002/PM tcp://localhost:30005/W tcp://localhost:30002/W
WORKER 6 tcp://localhost:20002/PM tcp://localhost:30006/W tcp://localhost:30002/W
STATUS
SLOWW 1 15
SLOWW 2 15
SLOWW 3 15
SLOWW 4 15
SLOWW 5 15
SLOWW 6 15
SUBMIT tcp://localhost:30003/W TestData/pl10.txt result_6w_pl10_charcount 10 CharCountMapper ../../../TestMapper/bin/Debug/TestMapper.dll
WAIT 1
STATUS
WAIT 15
STATUS
FREEZEC 3

